<?xml version="1.0" encoding="UTF-8" standalone="no"?>

<svg
   xmlns:dc="http://purl.org/dc/elements/1.1/"
   xmlns:cc="http://creativecommons.org/ns#"
   xmlns:rdf="http://www.w3.org/1999/02/22-rdf-syntax-ns#"
   xmlns:svg="http://www.w3.org/2000/svg"
   xmlns="http://www.w3.org/2000/svg"
   xmlns:sodipodi="http://sodipodi.sourceforge.net/DTD/sodipodi-0.dtd"
   xmlns:inkscape="http://www.inkscape.org/namespaces/inkscape"
   width="103.08276mm"
   height="113.54369mm"
   viewBox="0 0 103.08276 113.54369"
   version="1.1"
   id="svg8"
   inkscape:version="0.92.4 (unknown)"
   sodipodi:docname="monstera-logo.svg">
<defs>
    <linearGradient id="left-to-right" x1="50%" y1="100%" x2="50%" y2="0%">
      <stop offset="0" stop-color="#fff">
        <animate dur="2s" attributeName="offset" fill="freeze"   from="0" to="1" repeatCount="indefinite" />
      </stop>
      <stop offset="0" stop-color="#558b2f">
        <animate dur="2s" attributeName="offset" fill="freeze" x1="0" y1="1" from="0" to="1" repeatCount="indefinite" />
      </stop>      
    </linearGradient>
  </defs>
  <g
     inkscape:label="Layer 1"
     inkscape:groupmode="layer"
     id="layer1"
     transform="translate(-67.024798,-78.761126)">
    <path
      fill='url(#left-to-right)'
       style="opacity:1;vector-effect:none;fill-opacity:1;stroke:none;stroke-width:0.54554552;stroke-linecap:butt;stroke-linejoin:miter;stroke-miterlimit:4;stroke-dasharray:none;stroke-dashoffset:0;stroke-opacity:1"
       d="M11,9H9V2H7V9H5V2H3V9C3,11.12 4.66,12.84 6.75,12.97V22H9.25V12.97C11.34,12.84 13,11.12 13,9V2H11V9M16,6V14H18.5V22H21V2C18.24,2 16,4.24 16,6Z"
       id="path857"
       inkscape:connector-curvature="0" />
  </g>
</svg>

